<svg width="128" height="89" viewBox="0 0 128 89" fill="none" xmlns="http://www.w3.org/2000/svg">
<ellipse cx="81.6432" cy="3.44961" rx="3.44961" ry="3.45946" transform="rotate(90 81.6432 3.44961)" fill="black"/>
<ellipse cx="81.6432" cy="15.1783" rx="3.44961" ry="3.45946" transform="rotate(90 81.6432 15.1783)" fill="black"/>
<ellipse cx="81.6432" cy="26.907" rx="3.44961" ry="3.45946" transform="rotate(90 81.6432 26.907)" fill="black"/>
<ellipse cx="81.6432" cy="38.6357" rx="3.44961" ry="3.45946" transform="rotate(90 81.6432 38.6357)" fill="black"/>
<ellipse cx="70.5729" cy="3.44961" rx="3.44961" ry="3.45946" transform="rotate(90 70.5729 3.44961)" fill="black"/>
<ellipse cx="70.5729" cy="15.1783" rx="3.44961" ry="3.45946" transform="rotate(90 70.5729 15.1783)" fill="black"/>
<ellipse cx="70.5729" cy="26.907" rx="3.44961" ry="3.45946" transform="rotate(90 70.5729 26.907)" fill="black"/>
<ellipse cx="70.5729" cy="38.6357" rx="3.44961" ry="3.45946" transform="rotate(90 70.5729 38.6357)" fill="black"/>
<ellipse cx="59.5027" cy="3.44961" rx="3.44961" ry="3.45946" transform="rotate(90 59.5027 3.44961)" fill="black"/>
<ellipse cx="59.5027" cy="15.1783" rx="3.44961" ry="3.45946" transform="rotate(90 59.5027 15.1783)" fill="black"/>
<ellipse cx="59.5027" cy="26.907" rx="3.44961" ry="3.45946" transform="rotate(90 59.5027 26.907)" fill="black"/>
<ellipse cx="59.5027" cy="38.6357" rx="3.44961" ry="3.45946" transform="rotate(90 59.5027 38.6357)" fill="black"/>
<ellipse cx="48.4324" cy="3.44961" rx="3.44961" ry="3.45946" transform="rotate(90 48.4324 3.44961)" fill="black"/>
<ellipse cx="48.4324" cy="15.1783" rx="3.44961" ry="3.45946" transform="rotate(90 48.4324 15.1783)" fill="black"/>
<ellipse cx="48.4324" cy="26.907" rx="3.44961" ry="3.45946" transform="rotate(90 48.4324 26.907)" fill="black"/>
<ellipse cx="48.4324" cy="38.6357" rx="3.44961" ry="3.45946" transform="rotate(90 48.4324 38.6357)" fill="black"/>
<ellipse cx="81.6432" cy="50.3643" rx="3.44961" ry="3.45946" transform="rotate(90 81.6432 50.3643)" fill="black"/>
<ellipse cx="81.6432" cy="62.093" rx="3.44961" ry="3.45946" transform="rotate(90 81.6432 62.093)" fill="black"/>
<ellipse cx="81.6432" cy="73.8217" rx="3.44961" ry="3.45946" transform="rotate(90 81.6432 73.8217)" fill="black"/>
<ellipse cx="81.6432" cy="85.5504" rx="3.44961" ry="3.45946" transform="rotate(90 81.6432 85.5504)" fill="black"/>
<ellipse cx="70.5729" cy="50.3643" rx="3.44961" ry="3.45946" transform="rotate(90 70.5729 50.3643)" fill="black"/>
<ellipse cx="70.5729" cy="62.093" rx="3.44961" ry="3.45946" transform="rotate(90 70.5729 62.093)" fill="black"/>
<ellipse cx="70.5729" cy="73.8217" rx="3.44961" ry="3.45946" transform="rotate(90 70.5729 73.8217)" fill="black"/>
<ellipse cx="70.5729" cy="85.5504" rx="3.44961" ry="3.45946" transform="rotate(90 70.5729 85.5504)" fill="black"/>
<ellipse cx="59.5027" cy="50.3643" rx="3.44961" ry="3.45946" transform="rotate(90 59.5027 50.3643)" fill="black"/>
<ellipse cx="59.5027" cy="62.093" rx="3.44961" ry="3.45946" transform="rotate(90 59.5027 62.093)" fill="black"/>
<ellipse cx="59.5027" cy="73.8217" rx="3.44961" ry="3.45946" transform="rotate(90 59.5027 73.8217)" fill="black"/>
<ellipse cx="59.5027" cy="85.5504" rx="3.44961" ry="3.45946" transform="rotate(90 59.5027 85.5504)" fill="black"/>
<ellipse cx="48.4324" cy="50.3643" rx="3.44961" ry="3.45946" transform="rotate(90 48.4324 50.3643)" fill="black"/>
<ellipse cx="48.4324" cy="62.093" rx="3.44961" ry="3.45946" transform="rotate(90 48.4324 62.093)" fill="black"/>
<ellipse cx="48.4324" cy="73.8217" rx="3.44961" ry="3.45946" transform="rotate(90 48.4324 73.8217)" fill="black"/>
<ellipse cx="48.4324" cy="85.5504" rx="3.44961" ry="3.45946" transform="rotate(90 48.4324 85.5504)" fill="black"/>
<ellipse cx="36.6703" cy="3.44961" rx="3.44961" ry="3.45946" transform="rotate(90 36.6703 3.44961)" fill="black"/>
<ellipse cx="36.6703" cy="15.1783" rx="3.44961" ry="3.45946" transform="rotate(90 36.6703 15.1783)" fill="black"/>
<ellipse cx="36.6703" cy="26.907" rx="3.44961" ry="3.45946" transform="rotate(90 36.6703 26.907)" fill="black"/>
<ellipse cx="36.6703" cy="38.6357" rx="3.44961" ry="3.45946" transform="rotate(90 36.6703 38.6357)" fill="black"/>
<ellipse cx="25.6" cy="3.44961" rx="3.44961" ry="3.45946" transform="rotate(90 25.6 3.44961)" fill="black"/>
<ellipse cx="25.6" cy="15.1783" rx="3.44961" ry="3.45946" transform="rotate(90 25.6 15.1783)" fill="black"/>
<ellipse cx="25.6" cy="26.907" rx="3.44961" ry="3.45946" transform="rotate(90 25.6 26.907)" fill="black"/>
<ellipse cx="25.6" cy="38.6357" rx="3.44961" ry="3.45946" transform="rotate(90 25.6 38.6357)" fill="black"/>
<ellipse cx="14.5298" cy="3.44961" rx="3.44961" ry="3.45946" transform="rotate(90 14.5298 3.44961)" fill="black"/>
<ellipse cx="14.5298" cy="15.1783" rx="3.44961" ry="3.45946" transform="rotate(90 14.5298 15.1783)" fill="black"/>
<ellipse cx="14.5298" cy="26.907" rx="3.44961" ry="3.45946" transform="rotate(90 14.5298 26.907)" fill="black"/>
<ellipse cx="14.5298" cy="38.6357" rx="3.44961" ry="3.45946" transform="rotate(90 14.5298 38.6357)" fill="black"/>
<ellipse cx="3.45949" cy="3.44961" rx="3.44961" ry="3.45946" transform="rotate(90 3.45949 3.44961)" fill="black"/>
<ellipse cx="3.45949" cy="15.1783" rx="3.44961" ry="3.45946" transform="rotate(90 3.45949 15.1783)" fill="black"/>
<ellipse cx="3.45949" cy="26.907" rx="3.44961" ry="3.45946" transform="rotate(90 3.45949 26.907)" fill="black"/>
<ellipse cx="3.45949" cy="38.6357" rx="3.44961" ry="3.45946" transform="rotate(90 3.45949 38.6357)" fill="black"/>
<ellipse cx="36.6703" cy="50.3643" rx="3.44961" ry="3.45946" transform="rotate(90 36.6703 50.3643)" fill="black"/>
<ellipse cx="36.6703" cy="62.093" rx="3.44961" ry="3.45946" transform="rotate(90 36.6703 62.093)" fill="black"/>
<ellipse cx="36.6703" cy="73.8217" rx="3.44961" ry="3.45946" transform="rotate(90 36.6703 73.8217)" fill="black"/>
<ellipse cx="36.6703" cy="85.5504" rx="3.44961" ry="3.45946" transform="rotate(90 36.6703 85.5504)" fill="black"/>
<ellipse cx="25.6" cy="50.3643" rx="3.44961" ry="3.45946" transform="rotate(90 25.6 50.3643)" fill="black"/>
<ellipse cx="25.6" cy="62.093" rx="3.44961" ry="3.45946" transform="rotate(90 25.6 62.093)" fill="black"/>
<ellipse cx="25.6" cy="73.8217" rx="3.44961" ry="3.45946" transform="rotate(90 25.6 73.8217)" fill="black"/>
<ellipse cx="25.6" cy="85.5504" rx="3.44961" ry="3.45946" transform="rotate(90 25.6 85.5504)" fill="black"/>
<ellipse cx="14.5298" cy="50.3643" rx="3.44961" ry="3.45946" transform="rotate(90 14.5298 50.3643)" fill="black"/>
<ellipse cx="14.5298" cy="62.093" rx="3.44961" ry="3.45946" transform="rotate(90 14.5298 62.093)" fill="black"/>
<ellipse cx="14.5298" cy="73.8217" rx="3.44961" ry="3.45946" transform="rotate(90 14.5298 73.8217)" fill="black"/>
<ellipse cx="14.5298" cy="85.5504" rx="3.44961" ry="3.45946" transform="rotate(90 14.5298 85.5504)" fill="black"/>
<ellipse cx="3.45949" cy="50.3643" rx="3.44961" ry="3.45946" transform="rotate(90 3.45949 50.3643)" fill="black"/>
<ellipse cx="3.45949" cy="62.093" rx="3.44961" ry="3.45946" transform="rotate(90 3.45949 62.093)" fill="black"/>
<ellipse cx="3.45949" cy="73.8217" rx="3.44961" ry="3.45946" transform="rotate(90 3.45949 73.8217)" fill="black"/>
<ellipse cx="3.45949" cy="85.5504" rx="3.44961" ry="3.45946" transform="rotate(90 3.45949 85.5504)" fill="black"/>
<ellipse cx="124.541" cy="3.44961" rx="3.44961" ry="3.45946" transform="rotate(90 124.541 3.44961)" fill="black"/>
<ellipse cx="124.541" cy="15.1783" rx="3.44961" ry="3.45946" transform="rotate(90 124.541 15.1783)" fill="black"/>
<ellipse cx="124.541" cy="26.907" rx="3.44961" ry="3.45946" transform="rotate(90 124.541 26.907)" fill="black"/>
<ellipse cx="124.541" cy="38.6357" rx="3.44961" ry="3.45946" transform="rotate(90 124.541 38.6357)" fill="black"/>
<ellipse cx="113.47" cy="3.44961" rx="3.44961" ry="3.45946" transform="rotate(90 113.47 3.44961)" fill="black"/>
<ellipse cx="113.47" cy="15.1783" rx="3.44961" ry="3.45946" transform="rotate(90 113.47 15.1783)" fill="black"/>
<ellipse cx="113.47" cy="26.907" rx="3.44961" ry="3.45946" transform="rotate(90 113.47 26.907)" fill="black"/>
<ellipse cx="113.47" cy="38.6357" rx="3.44961" ry="3.45946" transform="rotate(90 113.47 38.6357)" fill="black"/>
<ellipse cx="102.4" cy="3.44961" rx="3.44961" ry="3.45946" transform="rotate(90 102.4 3.44961)" fill="black"/>
<ellipse cx="102.4" cy="15.1783" rx="3.44961" ry="3.45946" transform="rotate(90 102.4 15.1783)" fill="black"/>
<ellipse cx="102.4" cy="26.907" rx="3.44961" ry="3.45946" transform="rotate(90 102.4 26.907)" fill="black"/>
<ellipse cx="102.4" cy="38.6357" rx="3.44961" ry="3.45946" transform="rotate(90 102.4 38.6357)" fill="black"/>
<ellipse cx="91.3297" cy="3.44961" rx="3.44961" ry="3.45946" transform="rotate(90 91.3297 3.44961)" fill="black"/>
<ellipse cx="91.3297" cy="15.1783" rx="3.44961" ry="3.45946" transform="rotate(90 91.3297 15.1783)" fill="black"/>
<ellipse cx="91.3297" cy="26.907" rx="3.44961" ry="3.45946" transform="rotate(90 91.3297 26.907)" fill="black"/>
<ellipse cx="91.3297" cy="38.6357" rx="3.44961" ry="3.45946" transform="rotate(90 91.3297 38.6357)" fill="black"/>
<ellipse cx="124.541" cy="50.3643" rx="3.44961" ry="3.45946" transform="rotate(90 124.541 50.3643)" fill="black"/>
<ellipse cx="124.541" cy="62.093" rx="3.44961" ry="3.45946" transform="rotate(90 124.541 62.093)" fill="black"/>
<ellipse cx="124.541" cy="73.8217" rx="3.44961" ry="3.45946" transform="rotate(90 124.541 73.8217)" fill="black"/>
<ellipse cx="124.541" cy="85.5504" rx="3.44961" ry="3.45946" transform="rotate(90 124.541 85.5504)" fill="black"/>
<ellipse cx="113.47" cy="50.3643" rx="3.44961" ry="3.45946" transform="rotate(90 113.47 50.3643)" fill="black"/>
<ellipse cx="113.47" cy="62.093" rx="3.44961" ry="3.45946" transform="rotate(90 113.47 62.093)" fill="black"/>
<ellipse cx="113.47" cy="73.8217" rx="3.44961" ry="3.45946" transform="rotate(90 113.47 73.8217)" fill="black"/>
<ellipse cx="113.47" cy="85.5504" rx="3.44961" ry="3.45946" transform="rotate(90 113.47 85.5504)" fill="black"/>
<ellipse cx="102.4" cy="50.3643" rx="3.44961" ry="3.45946" transform="rotate(90 102.4 50.3643)" fill="black"/>
<ellipse cx="102.4" cy="62.093" rx="3.44961" ry="3.45946" transform="rotate(90 102.4 62.093)" fill="black"/>
<ellipse cx="102.4" cy="73.8217" rx="3.44961" ry="3.45946" transform="rotate(90 102.4 73.8217)" fill="black"/>
<ellipse cx="102.4" cy="85.5504" rx="3.44961" ry="3.45946" transform="rotate(90 102.4 85.5504)" fill="black"/>
<ellipse cx="91.3297" cy="50.3643" rx="3.44961" ry="3.45946" transform="rotate(90 91.3297 50.3643)" fill="black"/>
<ellipse cx="91.3297" cy="62.093" rx="3.44961" ry="3.45946" transform="rotate(90 91.3297 62.093)" fill="black"/>
<ellipse cx="91.3297" cy="73.8217" rx="3.44961" ry="3.45946" transform="rotate(90 91.3297 73.8217)" fill="black"/>
<ellipse cx="91.3297" cy="85.5504" rx="3.44961" ry="3.45946" transform="rotate(90 91.3297 85.5504)" fill="black"/>
</svg>
