<svg width="1440" height="900" viewBox="0 0 1440 900" fill="none" xmlns="http://www.w3.org/2000/svg">
<rect width="1440" height="900" fill="white"/>
<path d="M558 652C558 694.526 523.302 729 480.5 729C437.698 729 403 694.526 403 652C403 609.474 437.698 575 480.5 575C523.302 575 558 609.474 558 652Z" fill="#EB5757"/>
<rect x="1124.05" y="569.175" width="56.778" height="8.30897" transform="rotate(-45.13 1124.05 569.175)" fill="black"/>
<rect x="1129.94" y="528.935" width="56.778" height="8.30897" transform="rotate(45.1325 1129.94 528.935)" fill="black"/>
</svg>
